<?xml version="1.0" standalone="no"?>
<!DOCTYPE svg PUBLIC "-//W3C//DTD SVG 1.1//EN" "http://www.w3.org/Graphics/SVG/1.1/DTD/svg11.dtd">
<svg width="73.34mm" height="80.08mm"
 viewBox="0 0 73.34 80.08"
 xmlns="http://www.w3.org/2000/svg" version="1.1"
 xmlns:xlink="http://www.w3.org/1999/xlink">
<desc>Output from Flights of Ideas Sketchup Plugin</desc>

  <g id="face0" fill="none" stroke="rgb(0,0,255)" stroke-width="1">
    <line x1="10.0" y1="12.58" x2="10.0" y2="70.08"/>
    <line x1="10.0" y1="70.08" x2="63.34" y2="70.08"/>
    <line x1="63.34" y1="70.08" x2="63.34" y2="15.08"/>
    <line x1="63.34" y1="15.08" x2="60.8" y2="12.58"/>
    <line x1="60.8" y1="12.58" x2="52.0" y2="12.58"/>
    <line x1="52.0" y1="12.58" x2="49.0" y2="10.0"/>
    <line x1="49.0" y1="10.0" x2="15.0" y2="10.0"/>
    <line x1="15.0" y1="10.0" x2="12.0" y2="12.58"/>
    <line x1="12.0" y1="12.58" x2="10.0" y2="12.58"/>
    <line x1="44.0145186779375" y1="12.9941104721642" x2="43.9600000000001" y2="12.5800000000002"/>
    <line x1="43.9600000000001" y1="12.5800000000002" x2="44.0145186779375" y2="12.1658895278361"/>
    <line x1="44.0145186779375" y1="12.1658895278361" x2="44.174359353945" y2="11.7800000000002"/>
    <line x1="44.174359353945" y1="11.7800000000002" x2="44.4286291501016" y2="11.4486291501017"/>
    <line x1="44.4286291501016" y1="11.4486291501017" x2="44.76" y2="11.1943593539451"/>
    <line x1="44.76" y1="11.1943593539451" x2="45.145889527836" y2="11.0345186779377"/>
    <line x1="45.145889527836" y1="11.0345186779377" x2="45.56" y2="10.9800000000002"/>
    <line x1="45.56" y1="10.9800000000002" x2="45.9741104721641" y2="11.0345186779377"/>
    <line x1="45.9741104721641" y1="11.0345186779377" x2="46.36" y2="11.1943593539451"/>
    <line x1="46.36" y1="11.1943593539451" x2="46.6913708498985" y2="11.4486291501017"/>
    <line x1="46.6913708498985" y1="11.4486291501017" x2="46.9456406460552" y2="11.7800000000002"/>
    <line x1="46.9456406460552" y1="11.7800000000002" x2="47.1054813220625" y2="12.1658895278361"/>
    <line x1="47.1054813220625" y1="12.1658895278361" x2="47.16" y2="12.5800000000002"/>
    <line x1="47.16" y1="12.5800000000002" x2="47.1054813220625" y2="12.9941104721642"/>
    <line x1="47.1054813220625" y1="12.9941104721642" x2="46.9456406460552" y2="13.3800000000002"/>
    <line x1="46.9456406460552" y1="13.3800000000002" x2="46.6913708498985" y2="13.7113708498987"/>
    <line x1="46.6913708498985" y1="13.7113708498987" x2="46.36" y2="13.9656406460553"/>
    <line x1="46.36" y1="13.9656406460553" x2="45.9741104721641" y2="14.1254813220627"/>
    <line x1="45.9741104721641" y1="14.1254813220627" x2="45.56" y2="14.1800000000002"/>
    <line x1="45.56" y1="14.1800000000002" x2="45.145889527836" y2="14.1254813220627"/>
    <line x1="45.145889527836" y1="14.1254813220627" x2="44.76" y2="13.9656406460553"/>
    <line x1="44.76" y1="13.9656406460553" x2="44.4286291501016" y2="13.7113708498987"/>
    <line x1="44.4286291501016" y1="13.7113708498987" x2="44.174359353945" y2="13.3800000000002"/>
    <line x1="44.174359353945" y1="13.3800000000002" x2="44.0145186779375" y2="12.9941104721642"/>
    <line x1="16.4886291501016" y1="11.4486291501017" x2="16.8200000000001" y2="11.1943593539451"/>
    <line x1="16.8200000000001" y1="11.1943593539451" x2="17.205889527836" y2="11.0345186779377"/>
    <line x1="17.205889527836" y1="11.0345186779377" x2="17.6200000000001" y2="10.9800000000002"/>
    <line x1="17.6200000000001" y1="10.9800000000002" x2="18.0341104721641" y2="11.0345186779377"/>
    <line x1="18.0341104721641" y1="11.0345186779377" x2="18.4200000000001" y2="11.1943593539451"/>
    <line x1="18.4200000000001" y1="11.1943593539451" x2="18.7513708498985" y2="11.4486291501017"/>
    <line x1="18.7513708498985" y1="11.4486291501017" x2="19.0056406460552" y2="11.7800000000002"/>
    <line x1="19.0056406460552" y1="11.7800000000002" x2="19.1654813220626" y2="12.1658895278361"/>
    <line x1="19.1654813220626" y1="12.1658895278361" x2="19.2200000000001" y2="12.5800000000002"/>
    <line x1="19.2200000000001" y1="12.5800000000002" x2="19.1654813220626" y2="12.9941104721642"/>
    <line x1="19.1654813220626" y1="12.9941104721642" x2="19.0056406460552" y2="13.3800000000002"/>
    <line x1="19.0056406460552" y1="13.3800000000002" x2="18.7513708498985" y2="13.7113708498986"/>
    <line x1="18.7513708498985" y1="13.7113708498986" x2="18.4200000000001" y2="13.9656406460553"/>
    <line x1="18.4200000000001" y1="13.9656406460553" x2="18.0341104721641" y2="14.1254813220627"/>
    <line x1="18.0341104721641" y1="14.1254813220627" x2="17.6200000000001" y2="14.1800000000002"/>
    <line x1="17.6200000000001" y1="14.1800000000002" x2="17.205889527836" y2="14.1254813220627"/>
    <line x1="17.205889527836" y1="14.1254813220627" x2="16.8200000000001" y2="13.9656406460553"/>
    <line x1="16.8200000000001" y1="13.9656406460553" x2="16.4886291501016" y2="13.7113708498986"/>
    <line x1="16.4886291501016" y1="13.7113708498986" x2="16.234359353945" y2="13.3800000000002"/>
    <line x1="16.234359353945" y1="13.3800000000002" x2="16.0745186779375" y2="12.9941104721642"/>
    <line x1="16.0745186779375" y1="12.9941104721642" x2="16.0200000000001" y2="12.5800000000002"/>
    <line x1="16.0200000000001" y1="12.5800000000002" x2="16.0745186779375" y2="12.1658895278361"/>
    <line x1="16.0745186779375" y1="12.1658895278361" x2="16.234359353945" y2="11.7800000000002"/>
    <line x1="16.234359353945" y1="11.7800000000002" x2="16.4886291501016" y2="11.4486291501017"/>
    <line x1="61.6000000000001" y1="64.9656406460552" x2="61.2141104721641" y2="65.1254813220627"/>
    <line x1="61.2141104721641" y1="65.1254813220627" x2="60.8000000000001" y2="65.1800000000001"/>
    <line x1="60.8000000000001" y1="65.1800000000001" x2="60.385889527836" y2="65.1254813220627"/>
    <line x1="60.385889527836" y1="65.1254813220627" x2="60.0000000000001" y2="64.9656406460553"/>
    <line x1="60.0000000000001" y1="64.9656406460553" x2="59.6686291501016" y2="64.7113708498986"/>
    <line x1="59.6686291501016" y1="64.7113708498986" x2="59.414359353945" y2="64.3800000000002"/>
    <line x1="59.414359353945" y1="64.3800000000002" x2="59.2545186779376" y2="63.9941104721642"/>
    <line x1="59.2545186779376" y1="63.9941104721642" x2="59.2000000000001" y2="63.5800000000002"/>
    <line x1="59.2000000000001" y1="63.5800000000002" x2="59.2545186779376" y2="63.1658895278361"/>
    <line x1="59.2545186779376" y1="63.1658895278361" x2="59.414359353945" y2="62.7800000000002"/>
    <line x1="59.414359353945" y1="62.7800000000002" x2="59.6686291501016" y2="62.4486291501017"/>
    <line x1="59.6686291501016" y1="62.4486291501017" x2="60.0000000000001" y2="62.1943593539451"/>
    <line x1="60.0000000000001" y1="62.1943593539451" x2="60.385889527836" y2="62.0345186779377"/>
    <line x1="60.385889527836" y1="62.0345186779377" x2="60.8000000000001" y2="61.9800000000002"/>
    <line x1="60.8000000000001" y1="61.9800000000002" x2="61.2141104721641" y2="62.0345186779377"/>
    <line x1="61.2141104721641" y1="62.0345186779377" x2="61.6000000000001" y2="62.1943593539451"/>
    <line x1="61.6000000000001" y1="62.1943593539451" x2="61.9313708498985" y2="62.4486291501017"/>
    <line x1="61.9313708498985" y1="62.4486291501017" x2="62.1856406460552" y2="62.7800000000002"/>
    <line x1="62.1856406460552" y1="62.7800000000002" x2="62.3454813220626" y2="63.1658895278361"/>
    <line x1="62.3454813220626" y1="63.1658895278361" x2="62.4000000000001" y2="63.5800000000002"/>
    <line x1="62.4000000000001" y1="63.5800000000002" x2="62.3454813220626" y2="63.9941104721642"/>
    <line x1="62.3454813220626" y1="63.9941104721642" x2="62.1856406460552" y2="64.3800000000002"/>
    <line x1="62.1856406460552" y1="64.3800000000002" x2="61.9313708498986" y2="64.7113708498987"/>
    <line x1="61.9313708498986" y1="64.7113708498987" x2="61.6000000000001" y2="64.9656406460552"/>
    <line x1="13.6313708498986" y1="63.4486291501016" x2="13.8856406460552" y2="63.7800000000001"/>
    <line x1="13.8856406460552" y1="63.7800000000001" x2="14.0454813220626" y2="64.165889527836"/>
    <line x1="14.0454813220626" y1="64.165889527836" x2="14.1000000000001" y2="64.5800000000001"/>
    <line x1="14.1000000000001" y1="64.5800000000001" x2="14.0454813220626" y2="64.9941104721641"/>
    <line x1="14.0454813220626" y1="64.9941104721641" x2="13.8856406460552" y2="65.3800000000001"/>
    <line x1="13.8856406460552" y1="65.3800000000001" x2="13.6313708498986" y2="65.7113708498985"/>
    <line x1="13.6313708498986" y1="65.7113708498985" x2="13.3000000000001" y2="65.9656406460552"/>
    <line x1="13.3000000000001" y1="65.9656406460552" x2="12.9141104721641" y2="66.1254813220626"/>
    <line x1="12.9141104721641" y1="66.1254813220626" x2="12.5000000000001" y2="66.1800000000001"/>
    <line x1="12.5000000000001" y1="66.1800000000001" x2="12.0858895278361" y2="66.1254813220626"/>
    <line x1="12.0858895278361" y1="66.1254813220626" x2="11.7000000000001" y2="65.9656406460552"/>
    <line x1="11.7000000000001" y1="65.9656406460552" x2="11.3686291501016" y2="65.7113708498985"/>
    <line x1="11.3686291501016" y1="65.7113708498985" x2="11.114359353945" y2="65.3800000000001"/>
    <line x1="11.114359353945" y1="65.3800000000001" x2="10.9545186779376" y2="64.9941104721641"/>
    <line x1="10.9545186779376" y1="64.9941104721641" x2="10.9000000000001" y2="64.5800000000001"/>
    <line x1="10.9000000000001" y1="64.5800000000001" x2="10.9545186779376" y2="64.165889527836"/>
    <line x1="10.9545186779376" y1="64.165889527836" x2="11.114359353945" y2="63.7800000000001"/>
    <line x1="11.114359353945" y1="63.7800000000001" x2="11.3686291501016" y2="63.4486291501016"/>
    <line x1="11.3686291501016" y1="63.4486291501016" x2="11.7000000000001" y2="63.194359353945"/>
    <line x1="11.7000000000001" y1="63.194359353945" x2="12.0858895278361" y2="63.0345186779376"/>
    <line x1="12.0858895278361" y1="63.0345186779376" x2="12.5000000000001" y2="62.9800000000001"/>
    <line x1="12.5000000000001" y1="62.9800000000001" x2="12.9141104721641" y2="63.0345186779376"/>
    <line x1="12.9141104721641" y1="63.0345186779376" x2="13.3000000000001" y2="63.194359353945"/>
    <line x1="13.3000000000001" y1="63.194359353945" x2="13.6313708498986" y2="63.4486291501016"/>
    <line x1="21.6698729810779" y1="35.0800000000001" x2="22.4644660940674" y2="34.0444660940673"/>
    <line x1="22.4644660940674" y1="34.0444660940673" x2="23.5000000000001" y2="33.2498729810779"/>
    <line x1="23.5000000000001" y1="33.2498729810779" x2="24.7059047744875" y2="32.7503708685547"/>
    <line x1="24.7059047744875" y1="32.7503708685547" x2="26.0000000000001" y2="32.5800000000001"/>
    <line x1="26.0000000000001" y1="32.5800000000001" x2="27.2940952255127" y2="32.7503708685547"/>
    <line x1="27.2940952255127" y1="32.7503708685547" x2="28.5000000000001" y2="33.2498729810779"/>
    <line x1="28.5000000000001" y1="33.2498729810779" x2="29.5355339059328" y2="34.0444660940673"/>
    <line x1="29.5355339059328" y1="34.0444660940673" x2="30.3301270189223" y2="35.0800000000001"/>
    <line x1="30.3301270189223" y1="35.0800000000001" x2="30.8296291314454" y2="36.2859047744875"/>
    <line x1="30.8296291314454" y1="36.2859047744875" x2="31.0000000000001" y2="37.5800000000001"/>
    <line x1="31.0000000000001" y1="37.5800000000001" x2="30.8296291314454" y2="38.8740952255127"/>
    <line x1="30.8296291314454" y1="38.8740952255127" x2="30.3301270189223" y2="40.0800000000001"/>
    <line x1="30.3301270189223" y1="40.0800000000001" x2="29.5355339059328" y2="41.1155339059328"/>
    <line x1="29.5355339059328" y1="41.1155339059328" x2="28.5000000000001" y2="41.9101270189223"/>
    <line x1="28.5000000000001" y1="41.9101270189223" x2="27.2940952255127" y2="42.4096291314454"/>
    <line x1="27.2940952255127" y1="42.4096291314454" x2="26.0000000000001" y2="42.5800000000001"/>
    <line x1="26.0000000000001" y1="42.5800000000001" x2="24.7059047744875" y2="42.4096291314454"/>
    <line x1="24.7059047744875" y1="42.4096291314454" x2="23.5000000000001" y2="41.9101270189223"/>
    <line x1="23.5000000000001" y1="41.9101270189223" x2="22.4644660940674" y2="41.1155339059328"/>
    <line x1="22.4644660940674" y1="41.1155339059328" x2="21.6698729810779" y2="40.0800000000001"/>
    <line x1="21.6698729810779" y1="40.0800000000001" x2="21.1703708685548" y2="38.8740952255127"/>
    <line x1="21.1703708685548" y1="38.8740952255127" x2="21.0000000000001" y2="37.5800000000001"/>
    <line x1="21.0000000000001" y1="37.5800000000001" x2="21.1703708685548" y2="36.2859047744875"/>
    <line x1="21.1703708685548" y1="36.2859047744875" x2="21.6698729810779" y2="35.0800000000001"/>
    <line x1="43.3400000000001" y1="37.5800000000001" x2="43.5103708685548" y2="36.2859047744875"/>
    <line x1="43.5103708685548" y1="36.2859047744875" x2="44.0098729810779" y2="35.0800000000001"/>
    <line x1="44.0098729810779" y1="35.0800000000001" x2="44.8044660940674" y2="34.0444660940673"/>
    <line x1="44.8044660940674" y1="34.0444660940673" x2="45.8400000000001" y2="33.2498729810779"/>
    <line x1="45.8400000000001" y1="33.2498729810779" x2="47.0459047744875" y2="32.7503708685547"/>
    <line x1="47.0459047744875" y1="32.7503708685547" x2="48.3400000000001" y2="32.5800000000001"/>
    <line x1="48.3400000000001" y1="32.5800000000001" x2="49.6340952255127" y2="32.7503708685547"/>
    <line x1="49.6340952255127" y1="32.7503708685547" x2="50.8400000000001" y2="33.2498729810779"/>
    <line x1="50.8400000000001" y1="33.2498729810779" x2="51.8755339059328" y2="34.0444660940673"/>
    <line x1="51.8755339059328" y1="34.0444660940673" x2="52.6701270189223" y2="35.0800000000001"/>
    <line x1="52.6701270189223" y1="35.0800000000001" x2="53.1696291314454" y2="36.2859047744875"/>
    <line x1="53.1696291314454" y1="36.2859047744875" x2="53.3400000000001" y2="37.5800000000001"/>
    <line x1="53.3400000000001" y1="37.5800000000001" x2="53.1696291314454" y2="38.8740952255127"/>
    <line x1="53.1696291314454" y1="38.8740952255127" x2="52.6701270189223" y2="40.0800000000001"/>
    <line x1="52.6701270189223" y1="40.0800000000001" x2="51.8755339059328" y2="41.1155339059328"/>
    <line x1="51.8755339059328" y1="41.1155339059328" x2="50.8400000000001" y2="41.9101270189223"/>
    <line x1="50.8400000000001" y1="41.9101270189223" x2="49.6340952255127" y2="42.4096291314454"/>
    <line x1="49.6340952255127" y1="42.4096291314454" x2="48.3400000000001" y2="42.5800000000001"/>
    <line x1="48.3400000000001" y1="42.5800000000001" x2="47.0459047744875" y2="42.4096291314454"/>
    <line x1="47.0459047744875" y1="42.4096291314454" x2="45.8400000000001" y2="41.9101270189223"/>
    <line x1="45.8400000000001" y1="41.9101270189223" x2="44.8044660940674" y2="41.1155339059328"/>
    <line x1="44.8044660940674" y1="41.1155339059328" x2="44.0098729810779" y2="40.0800000000001"/>
    <line x1="44.0098729810779" y1="40.0800000000001" x2="43.5103708685547" y2="38.8740952255127"/>
    <line x1="43.5103708685547" y1="38.8740952255127" x2="43.3400000000001" y2="37.5800000000001"/>
    <line x1="24.0000000000001" y1="61.5441016151378" x2="23.1715728752539" y2="60.9084271247463"/>
    <line x1="23.1715728752539" y1="60.9084271247463" x2="22.5358983848623" y2="60.0800000000001"/>
    <line x1="22.5358983848623" y1="60.0800000000001" x2="22.1362966948438" y2="59.1152761804102"/>
    <line x1="22.1362966948438" y1="59.1152761804102" x2="22.0000000000001" y2="58.0800000000001"/>
    <line x1="22.0000000000001" y1="58.0800000000001" x2="22.1362966948438" y2="57.04472381959"/>
    <line x1="22.1362966948438" y1="57.04472381959" x2="22.5358983848623" y2="56.0800000000001"/>
    <line x1="22.5358983848623" y1="56.0800000000001" x2="23.1715728752539" y2="55.2515728752539"/>
    <line x1="23.1715728752539" y1="55.2515728752539" x2="24.0000000000001" y2="54.6158983848623"/>
    <line x1="24.0000000000001" y1="54.6158983848623" x2="24.96472381959" y2="54.2162966948438"/>
    <line x1="24.96472381959" y1="54.2162966948438" x2="26.0000000000001" y2="54.0800000000001"/>
    <line x1="26.0000000000001" y1="54.0800000000001" x2="27.0352761804102" y2="54.2162966948438"/>
    <line x1="27.0352761804102" y1="54.2162966948438" x2="28.0000000000001" y2="54.6158983848623"/>
    <line x1="28.0000000000001" y1="54.6158983848623" x2="28.8284271247463" y2="55.2515728752539"/>
    <line x1="28.8284271247463" y1="55.2515728752539" x2="29.4641016151378" y2="56.0800000000001"/>
    <line x1="29.4641016151378" y1="56.0800000000001" x2="29.8637033051564" y2="57.04472381959"/>
    <line x1="29.8637033051564" y1="57.04472381959" x2="30.0000000000001" y2="58.0800000000001"/>
    <line x1="30.0000000000001" y1="58.0800000000001" x2="29.8637033051564" y2="59.1152761804101"/>
    <line x1="29.8637033051564" y1="59.1152761804101" x2="29.4641016151378" y2="60.0800000000001"/>
    <line x1="29.4641016151378" y1="60.0800000000001" x2="28.8284271247463" y2="60.9084271247463"/>
    <line x1="28.8284271247463" y1="60.9084271247463" x2="28.0000000000001" y2="61.5441016151378"/>
    <line x1="28.0000000000001" y1="61.5441016151378" x2="27.0352761804102" y2="61.9437033051563"/>
    <line x1="27.0352761804102" y1="61.9437033051563" x2="26.0000000000001" y2="62.0800000000001"/>
    <line x1="26.0000000000001" y1="62.0800000000001" x2="24.96472381959" y2="61.9437033051563"/>
    <line x1="24.96472381959" y1="61.9437033051563" x2="24.0000000000001" y2="61.5441016151378"/>
    <line x1="46.3400000000001" y1="61.5441016151378" x2="45.5115728752539" y2="60.9084271247462"/>
    <line x1="45.5115728752539" y1="60.9084271247462" x2="44.8758983848623" y2="60.08"/>
    <line x1="44.8758983848623" y1="60.08" x2="44.4762966948438" y2="59.1152761804101"/>
    <line x1="44.4762966948438" y1="59.1152761804101" x2="44.3400000000001" y2="58.08"/>
    <line x1="44.3400000000001" y1="58.08" x2="44.4762966948438" y2="57.0447238195899"/>
    <line x1="44.4762966948438" y1="57.0447238195899" x2="44.8758983848623" y2="56.08"/>
    <line x1="44.8758983848623" y1="56.08" x2="45.5115728752539" y2="55.2515728752538"/>
    <line x1="45.5115728752539" y1="55.2515728752538" x2="46.3400000000001" y2="54.6158983848623"/>
    <line x1="46.3400000000001" y1="54.6158983848623" x2="47.30472381959" y2="54.2162966948437"/>
    <line x1="47.30472381959" y1="54.2162966948437" x2="48.3400000000001" y2="54.08"/>
    <line x1="48.3400000000001" y1="54.08" x2="49.3752761804102" y2="54.2162966948437"/>
    <line x1="49.3752761804102" y1="54.2162966948437" x2="50.3400000000001" y2="54.6158983848623"/>
    <line x1="50.3400000000001" y1="54.6158983848623" x2="51.1684271247463" y2="55.2515728752538"/>
    <line x1="51.1684271247463" y1="55.2515728752538" x2="51.8041016151379" y2="56.08"/>
    <line x1="51.8041016151379" y1="56.08" x2="52.2037033051564" y2="57.0447238195899"/>
    <line x1="52.2037033051564" y1="57.0447238195899" x2="52.3400000000001" y2="58.08"/>
    <line x1="52.3400000000001" y1="58.08" x2="52.2037033051564" y2="59.1152761804101"/>
    <line x1="52.2037033051564" y1="59.1152761804101" x2="51.8041016151379" y2="60.08"/>
    <line x1="51.8041016151379" y1="60.08" x2="51.1684271247463" y2="60.9084271247462"/>
    <line x1="51.1684271247463" y1="60.9084271247462" x2="50.3400000000001" y2="61.5441016151378"/>
    <line x1="50.3400000000001" y1="61.5441016151378" x2="49.3752761804102" y2="61.9437033051563"/>
    <line x1="49.3752761804102" y1="61.9437033051563" x2="48.3400000000001" y2="62.08"/>
    <line x1="48.3400000000001" y1="62.08" x2="47.30472381959" y2="61.9437033051563"/>
    <line x1="47.30472381959" y1="61.9437033051563" x2="46.3400000000001" y2="61.5441016151378"/>
  </g>
</svg>
